Chapter 4 - Lab - Logistic Regression, LDA, QDA, and KNN
…
Chapter 4 - Lab - Logistic Regression, LDA, QDA, and KNN

4.6.1 - Stock Market Data

We examine some numerical and graphical summaries of the Smarket data. We first   

library(tidyverse)
library(broom)
library(ISLR)

(smarket <- as_tibble(Smarket))

## # A tibble: 1,250 x 9
##     Year   Lag1   Lag2   Lag3   Lag4   Lag5 Volume  Today Direction
##  * <dbl>  <dbl>  <dbl>  <dbl>  <dbl>  <dbl>  <dbl>  <dbl> <fct>    
##  1  2001  0.381 -0.192 -2.62  -1.06   5.01    1.19  0.959 Up       
##  2  2001  0.959  0.381 -0.192 -2.62  -1.06    1.30  1.03  Up       
##  3  2001  1.03   0.959  0.381 -0.192 -2.62    1.41 -0.623 Down     
##  4  2001 -0.623  1.03   0.959  0.381 -0.192   1.28  0.614 Up       
##  5  2001  0.614 -0.623  1.03   0.959  0.381   1.21  0.213 Up       
##  6  2001  0.213  0.614 -0.623  1.03   0.959   1.35  1.39  Up       
##  7  2001  1.39   0.213  0.614 -0.623  1.03    1.44 -0.403 Down     
##  8  2001 -0.403  1.39   0.213  0.614 -0.623   1.41  0.027 Up       
##  9  2001  0.027 -0.403  1.39   0.213  0.614   1.16  1.30  Up       
## 10  2001  1.30   0.027 -0.403  1.39   0.213   1.23  0.287 Up       
## # ... with 1,240 more rows
…
Looking at the p-values for the predictors, the smallest one is Lag1 with 0.15, which is larger than our general 0.05 consideration for statistical significance. The negative correlation tells us that if the stock market went up yesterday, it's more likely to go down today.

The predict() function can be used to predict the probability that the stocket market will go up given the values of the predictors. The type = response option tells R to output probabilities of the form P(Y = 1|X) - the probability that Y equals 1 given X. If no data is given to predict(), it computes the probabilities for the training data.

Lets add these probabilities as a column glm.pred to the smarket data.

(smarket <- smarket %>% add_column(glm.pred = predict(smarket.glm, type = "response")))

## # A tibble: 1,250 x 10
##     Year   Lag1   Lag2   Lag3   Lag4   Lag5 Volume  Today Direction
##    <dbl>  <dbl>  <dbl>  <dbl>  <dbl>  <dbl>  <dbl>  <dbl> <fct>    
##  1  2001  0.381 -0.192 -2.62  -1.06   5.01    1.19  0.959 Up       
##  2  2001  0.959  0.381 -0.192 -2.62  -1.06    1.30  1.03  Up       
##  3  2001  1.03   0.959  0.381 -0.192 -2.62    1.41 -0.623 Down     
##  4  2001 -0.623  1.03   0.959  0.381 -0.192   1.28  0.614 Up       
##  5  2001  0.614 -0.623  1.03   0.959  0.381   1.21  0.213 Up       
##  6  2001  0.213  0.614 -0.623  1.03   0.959   1.35  1.39  Up       
##  7  2001  1.39   0.213  0.614 -0.623  1.03    1.44 -0.403 Down     
##  8  2001 -0.403  1.39   0.213  0.614 -0.623   1.41  0.027 Up       
##  9  2001  0.027 -0.403  1.39   0.213  0.614   1.16  1.30  Up       
## 10  2001  1.30   0.027 -0.403  1.39   0.213   1.23  0.287 Up       
## # ... with 1,240 more rows, and 1 more variable: glm.pred <dbl>

We add another column with the probabilities converted into class labels Up and Down.

(smarket <- smarket %>% mutate(Pred = ifelse(glm.pred < .5, "Down", "Up")))

## # A tibble: 1,250 x 11
##     Year   Lag1   Lag2   Lag3   Lag4   Lag5 Volume  Today Direction
##    <dbl>  <dbl>  <dbl>  <dbl>  <dbl>  <dbl>  <dbl>  <dbl> <fct>    
##  1  2001  0.381 -0.192 -2.62  -1.06   5.01    1.19  0.959 Up       
##  2  2001  0.959  0.381 -0.192 -2.62  -1.06    1.30  1.03  Up       
##  3  2001  1.03   0.959  0.381 -0.192 -2.62    1.41 -0.623 Down     
##  4  2001 -0.623  1.03   0.959  0.381 -0.192   1.28  0.614 Up       
##  5  2001  0.614 -0.623  1.03   0.959  0.381   1.21  0.213 Up       
##  6  2001  0.213  0.614 -0.623  1.03   0.959   1.35  1.39  Up       
##  7  2001  1.39   0.213  0.614 -0.623  1.03    1.44 -0.403 Down     
##  8  2001 -0.403  1.39   0.213  0.614 -0.623   1.41  0.027 Up       
##  9  2001  0.027 -0.403  1.39   0.213  0.614   1.16  1.30  Up       
## 10  2001  1.30   0.027 -0.403  1.39   0.213   1.23  0.287 Up       
## # ... with 1,240 more rows, and 2 more variables: glm.pred <dbl>,
## #   Pred <chr>
…
We see the prior probabilities of the groups, and the group means which are the average of each predictor within each class. We also see a plot of the linear dicriminants by computing the function with the coefficients over the training data.

(smarket_test <- smarket_test %>% mutate(lda.pred = predict(smarket_lda_fit, .)$class))

## # A tibble: 252 x 13
##     Year   Lag1   Lag2   Lag3   Lag4   Lag5 Volume  Today Direction
##    <dbl>  <dbl>  <dbl>  <dbl>  <dbl>  <dbl>  <dbl>  <dbl> <fct>    
##  1  2005 -0.134  0.008 -0.007  0.715 -0.431  0.787 -0.812 Down     
##  2  2005 -0.812 -0.134  0.008 -0.007  0.715  1.51  -1.17  Down     
##  3  2005 -1.17  -0.812 -0.134  0.008 -0.007  1.72  -0.363 Down     
##  4  2005 -0.363 -1.17  -0.812 -0.134  0.008  1.74   0.351 Up       
##  5  2005  0.351 -0.363 -1.17  -0.812 -0.134  1.57  -0.143 Down     
##  6  2005 -0.143  0.351 -0.363 -1.17  -0.812  1.48   0.342 Up       
##  7  2005  0.342 -0.143  0.351 -0.363 -1.17   1.49  -0.61  Down     
##  8  2005 -0.61   0.342 -0.143  0.351 -0.363  1.49   0.398 Up       
##  9  2005  0.398 -0.61   0.342 -0.143  0.351  1.56  -0.863 Down     
## 10  2005 -0.863  0.398 -0.61   0.342 -0.143  1.51   0.6   Up       
## # ... with 242 more rows, and 4 more variables: glm.pred <dbl>,
## #   Pred <chr>, Prob <dbl>, lda.pred <fct>
…
## Call:
## qda(Direction ~ Lag1 + Lag2, data = .)
## 
## Prior probabilities of groups:
##     Down       Up 
## 0.491984 0.508016 
## 
## Group means:
##             Lag1        Lag2
## Down  0.04279022  0.03389409
## Up   -0.03954635 -0.03132544

(smarket_test <- smarket_test %>% mutate(qda.pred = predict(smarket_qda_fit, .)$class))

## # A tibble: 252 x 14
##     Year   Lag1   Lag2   Lag3   Lag4   Lag5 Volume  Today Direction
##    <dbl>  <dbl>  <dbl>  <dbl>  <dbl>  <dbl>  <dbl>  <dbl> <fct>    
##  1  2005 -0.134  0.008 -0.007  0.715 -0.431  0.787 -0.812 Down     
##  2  2005 -0.812 -0.134  0.008 -0.007  0.715  1.51  -1.17  Down     
##  3  2005 -1.17  -0.812 -0.134  0.008 -0.007  1.72  -0.363 Down     
##  4  2005 -0.363 -1.17  -0.812 -0.134  0.008  1.74   0.351 Up       
##  5  2005  0.351 -0.363 -1.17  -0.812 -0.134  1.57  -0.143 Down     
##  6  2005 -0.143  0.351 -0.363 -1.17  -0.812  1.48   0.342 Up       
##  7  2005  0.342 -0.143  0.351 -0.363 -1.17   1.49  -0.61  Down     
##  8  2005 -0.61   0.342 -0.143  0.351 -0.363  1.49   0.398 Up       
##  9  2005  0.398 -0.61   0.342 -0.143  0.351  1.56  -0.863 Down     
## 10  2005 -0.863  0.398 -0.61   0.342 -0.143  1.51   0.6   Up       
## # ... with 242 more rows, and 5 more variables: glm.pred <dbl>,
## #   Pred <chr>, Prob <dbl>, lda.pred <fct>, qda.pred <fct>
…
