…
```
## ── Conflicts ───────────────────────────────────── tidyverse_conflicts() ──
## ✖ dplyr::filter() masks stats::filter()
## ✖ dplyr::lag()    masks stats::lag()
```

```r
library(broom)
library(ISLR)
(smarket <- as_tibble(Smarket))
```

```
## # A tibble: 1,250 x 9
##     Year   Lag1   Lag2   Lag3   Lag4   Lag5 Volume  Today Direction
##  * <dbl>  <dbl>  <dbl>  <dbl>  <dbl>  <dbl>  <dbl>  <dbl> <fct>    
##  1  2001  0.381 -0.192 -2.62  -1.06   5.01    1.19  0.959 Up       
##  2  2001  0.959  0.381 -0.192 -2.62  -1.06    1.30  1.03  Up       
##  3  2001  1.03   0.959  0.381 -0.192 -2.62    1.41 -0.623 Down     
##  4  2001 -0.623  1.03   0.959  0.381 -0.192   1.28  0.614 Up       
##  5  2001  0.614 -0.623  1.03   0.959  0.381   1.21  0.213 Up       
##  6  2001  0.213  0.614 -0.623  1.03   0.959   1.35  1.39  Up       
##  7  2001  1.39   0.213  0.614 -0.623  1.03    1.44 -0.403 Down     
##  8  2001 -0.403  1.39   0.213  0.614 -0.623   1.41  0.027 Up       
##  9  2001  0.027 -0.403  1.39   0.213  0.614   1.16  1.30  Up       
## 10  2001  1.30   0.027 -0.403  1.39   0.213   1.23  0.287 Up       
## # ... with 1,240 more rows
```
…
Looking at the p-values for the predictors, the smallest one is `Lag1` with 0.15, which is larger than our general 0.05 consideration for statistical significance. The negative correlation tells us that if the stock market went up yesterday, it's more likely to go down today.

The `predict()` function can be used to predict the probability that the stocket market will go up given the values of the predictors. The `type = response` option tells R to output probabilities of the form `P(Y = 1|X)` - the probability that Y equals 1 given X. If no data is given to `predict()`, it computes the probabilities for the training data.

Lets add these probabilities as a column `glm.pred` to the `smarket` data.


```r
(smarket <- smarket %>% add_column(glm.pred = predict(smarket.glm, type = "response")))
```

```
## # A tibble: 1,250 x 10
##     Year   Lag1   Lag2   Lag3   Lag4   Lag5 Volume  Today Direction
##    <dbl>  <dbl>  <dbl>  <dbl>  <dbl>  <dbl>  <dbl>  <dbl> <fct>    
##  1  2001  0.381 -0.192 -2.62  -1.06   5.01    1.19  0.959 Up       
##  2  2001  0.959  0.381 -0.192 -2.62  -1.06    1.30  1.03  Up       
##  3  2001  1.03   0.959  0.381 -0.192 -2.62    1.41 -0.623 Down     
##  4  2001 -0.623  1.03   0.959  0.381 -0.192   1.28  0.614 Up       
##  5  2001  0.614 -0.623  1.03   0.959  0.381   1.21  0.213 Up       
##  6  2001  0.213  0.614 -0.623  1.03   0.959   1.35  1.39  Up       
##  7  2001  1.39   0.213  0.614 -0.623  1.03    1.44 -0.403 Down     
##  8  2001 -0.403  1.39   0.213  0.614 -0.623   1.41  0.027 Up       
##  9  2001  0.027 -0.403  1.39   0.213  0.614   1.16  1.30  Up       
## 10  2001  1.30   0.027 -0.403  1.39   0.213   1.23  0.287 Up       
## # ... with 1,240 more rows, and 1 more variable: glm.pred <dbl>
```

We add another column with the probabilities converted into class labels `Up` and `Down`.


```r
(smarket <- smarket %>% mutate(Pred = ifelse(glm.pred < .5, "Down", "Up")))
```

```
## # A tibble: 1,250 x 11
##     Year   Lag1   Lag2   Lag3   Lag4   Lag5 Volume  Today Direction
##    <dbl>  <dbl>  <dbl>  <dbl>  <dbl>  <dbl>  <dbl>  <dbl> <fct>    
##  1  2001  0.381 -0.192 -2.62  -1.06   5.01    1.19  0.959 Up       
##  2  2001  0.959  0.381 -0.192 -2.62  -1.06    1.30  1.03  Up       
##  3  2001  1.03   0.959  0.381 -0.192 -2.62    1.41 -0.623 Down     
##  4  2001 -0.623  1.03   0.959  0.381 -0.192   1.28  0.614 Up       
##  5  2001  0.614 -0.623  1.03   0.959  0.381   1.21  0.213 Up       
##  6  2001  0.213  0.614 -0.623  1.03   0.959   1.35  1.39  Up       
##  7  2001  1.39   0.213  0.614 -0.623  1.03    1.44 -0.403 Down     
##  8  2001 -0.403  1.39   0.213  0.614 -0.623   1.41  0.027 Up       
##  9  2001  0.027 -0.403  1.39   0.213  0.614   1.16  1.30  Up       
## 10  2001  1.30   0.027 -0.403  1.39   0.213   1.23  0.287 Up       
## # ... with 1,240 more rows, and 2 more variables: glm.pred <dbl>,
## #   Pred <chr>
```
…
