…
```r
default_split_train <- glm(default ~ balance, data = as.tibble(default_split$train), family = binomial)
```

#### iii)
*Obtain a prediction of default status for each individual in the validation set by computing the posterior probability of default for that individual, and classifying the individual to the default category if the posterior probability is greater than 0.5.*

```r
as.tibble(default_split$test) %>% 
    mutate(pred_default = ifelse(predict(default_split_train, ., type = 'response') < 0.5, "No", "Yes"))
```

```
## # A tibble: 5,001 x 5
##    default student balance income pred_default
##    <fct>   <fct>     <dbl>  <dbl> <chr>       
##  1 No      No        1074. 31767. No          
##  2 No      No         529. 35704. No          
##  3 No      Yes        920.  7492. No          
##  4 No      No         826. 24905. No          
##  5 No      Yes        809. 17600. No          
##  6 No      No        1161. 37469. No          
##  7 No      No         237. 28252. No          
##  8 No      No        1113. 23810. No          
##  9 No      No           0  50265. No          
## 10 No      Yes        528. 17637. No          
## # ... with 4,991 more rows
```
…
## 8)
*We will now perform cross-validation on a simulated data set.*

### a) 
*Generate a simulated data set*


```r
set.seed(1)
(simulated <- tibble(x = rnorm(100), y = x - 2*x^2 + rnorm(100)))
```

```
## # A tibble: 100 x 2
##         x      y
##     <dbl>  <dbl>
##  1 -0.626 -2.03 
##  2  0.184  0.158
##  3 -0.836 -3.14 
##  4  1.60  -3.34 
##  5  0.330 -0.542
##  6 -0.820 -0.400
##  7  0.487  0.729
##  8  0.738  0.558
##  9  0.576  0.297
## 10 -0.305  1.19 
## # ... with 90 more rows
```
…
