Chapter 5 - Applied
…
ii)

Fit a multiple logistic regression model using only the training observations.

default_split_train <- glm(default ~ balance, data = as.tibble(default_split$train), family = binomial)

iii)

Obtain a prediction of default status for each individual in the validation set by computing the posterior probability of default for that individual, and classifying the individual to the default category if the posterior probability is greater than 0.5.

as.tibble(default_split$test) %>% 
    mutate(pred_default = ifelse(predict(default_split_train, ., type = 'response') < 0.5, "No", "Yes"))

## # A tibble: 5,001 x 5
##    default student balance income pred_default
##    <fct>   <fct>     <dbl>  <dbl> <chr>       
##  1 No      No        1074. 31767. No          
##  2 No      No         529. 35704. No          
##  3 No      Yes        920.  7492. No          
##  4 No      No         826. 24905. No          
##  5 No      Yes        809. 17600. No          
##  6 No      No        1161. 37469. No          
##  7 No      No         237. 28252. No          
##  8 No      No        1113. 23810. No          
##  9 No      No           0  50265. No          
## 10 No      Yes        528. 17637. No          
## # ... with 4,991 more rows
…
