…
## 10.4 - Principal Component Analysis

We will perform PCA on the `USArrests` data set. It contains the 50 states in alphabetical order, with the urban population, and the number of assaults, rapes and murders.


```r
(us_arrests <- as_tibble(USArrests, rownames = 'State'))
```

```
## # A tibble: 50 x 5
##    State       Murder Assault UrbanPop  Rape
##    <chr>        <dbl>   <int>    <int> <dbl>
##  1 Alabama       13.2     236       58  21.2
##  2 Alaska        10       263       48  44.5
##  3 Arizona        8.1     294       80  31  
##  4 Arkansas       8.8     190       50  19.5
##  5 California     9       276       91  40.6
##  6 Colorado       7.9     204       78  38.7
##  7 Connecticut    3.3     110       77  11.1
##  8 Delaware       5.9     238       72  15.8
##  9 Florida       15.4     335       80  31.9
## 10 Georgia       17.4     211       60  25.8
## # … with 40 more rows
```
…
