…
### iv)
Create a new variable *Elite* by binning the *Top10perc* variable. We divide universities into two groups depending on whether or not the proportion of students coming from the top 10% of their high schools exceeds 10%.


```r
college %>% mutate(Elite = factor(ifelse(Top10perc > 50, "Yes", "No")))
```

```
## # A tibble: 777 x 19
##    Private  Apps Accept Enroll Top10perc Top25perc F.Undergrad P.Undergrad
##    <fct>   <dbl>  <dbl>  <dbl>     <dbl>     <dbl>       <dbl>       <dbl>
##  1 Yes      1660   1232    721        23        52        2885         537
##  2 Yes      2186   1924    512        16        29        2683        1227
##  3 Yes      1428   1097    336        22        50        1036          99
##  4 Yes       417    349    137        60        89         510          63
##  5 Yes       193    146     55        16        44         249         869
##  6 Yes       587    479    158        38        62         678          41
##  7 Yes       353    340    103        17        45         416         230
##  8 Yes      1899   1720    489        37        68        1594          32
##  9 Yes      1038    839    227        30        63         973         306
## 10 Yes       582    498    172        21        44         799          78
## # … with 767 more rows, and 11 more variables: Outstate <dbl>,
## #   Room.Board <dbl>, Books <dbl>, Personal <dbl>, PhD <dbl>,
## #   Terminal <dbl>, S.F.Ratio <dbl>, perc.alumni <dbl>, Expend <dbl>,
## #   Grad.Rate <dbl>, Elite <fct>
```
…
