Chapter 7 - Moving Beyond Linearity - Applied Exercises
…
loess_spans %>% arrange(mse)

## # A tibble: 86 x 2
##     span   mse
##    <dbl> <dbl>
##  1 0.28   17.0
##  2 0.22   17.1
##  3 0.24   17.1
##  4 0.3    17.2
##  5 0.27   17.2
##  6 0.29   17.3
##  7 0.18   17.4
##  8 0.25   17.5
##  9 0.23   17.5
## 10 0.330  17.6
## #  with 76 more rows
…
