…
```r
loess_spans %>% arrange(mse)
```

```
## # A tibble: 86 x 2
##     span   mse
##    <dbl> <dbl>
##  1  0.29  16.9
##  2  0.26  17.0
##  3  0.19  17.1
##  4  0.31  17.3
##  5  0.27  17.3
##  6  0.24  17.3
##  7  0.16  17.4
##  8  0.35  17.5
##  9  0.36  17.5
## 10  0.21  17.6
## # ... with 76 more rows
```
…
