Chapter 6 - Lab
…
The glmnet() function has an alpha parameter that determines what type of model is fit. If alpha = 0 then a ridge regresion model is fit. If alpha = 1 then a lasso is fit.

Let's fit a ridge regression model with an alpha between \(10^10\) and \(10^-2\):

ridge.mod <- glmnet(x, y, alpha = 0, lambda = 10 ^ seq(10, -2, length = 100))

By default, the glmnet() function standardises the variables to the same scale.

Associated with each \(\lambda\) is a vector of ridge regression coefficients, stored in a matrix and accessible using coef().

We can also tidy the model:

ridge.mod %>% tidy()

## # A tibble: 2,000 x 5
##    term         step estimate      lambda   dev.ratio
##    <chr>       <dbl>    <dbl>       <dbl>       <dbl>
##  1 (Intercept)     1  5.36e+2 10000000000 0.000000276
##  2 AtBat           1  5.44e-8 10000000000 0.000000276
##  3 Hits            1  1.97e-7 10000000000 0.000000276
##  4 HmRun           1  7.96e-7 10000000000 0.000000276
##  5 Runs            1  3.34e-7 10000000000 0.000000276
##  6 RBI             1  3.53e-7 10000000000 0.000000276
##  7 Walks           1  4.15e-7 10000000000 0.000000276
##  8 Years           1  1.70e-6 10000000000 0.000000276
##  9 CAtBat          1  4.67e-9 10000000000 0.000000276
## 10 CHits           1  1.72e-8 10000000000 0.000000276
## # ... with 1,990 more rows
…
