…
Even generating 10,000 different sets of 100 observations, we don't see a linear RSS below that of a cubic RSS:


```r
generate_observations(100, 10000, function(x) 3 * x + rnorm(1,0,20)) %>% 
    group_by(set) %>% 
    summarise(linear = lm(y~x) %>% deviance(), cubic = lm(y~poly(x,3)) %>% deviance()) %>% 
    mutate(rss_diff = linear - cubic) %>% 
    arrange(rss_diff)
```

```
## # A tibble: 10,000 x 4
##      set linear  cubic rss_diff
##    <dbl>  <dbl>  <dbl>    <dbl>
##  1  5335 34663. 34663.  0.00427
##  2  4768 32481. 32480.  0.152  
##  3  7398 42744. 42744.  0.170  
##  4  3926 33448. 33448.  0.240  
##  5  8443 43568. 43567.  0.489  
##  6  7440 40615. 40614.  0.553  
##  7  9045 35066. 35066.  0.653  
##  8  6299 32981. 32980.  0.723  
##  9  1649 33182. 33181.  0.820  
## 10  1766 27668. 27667.  0.827  
## # … with 9,990 more rows
```
